[{
  "id": 1,
  "fecha": "9/24/2019",
  "importe": 7,
  "latitud": -9.8015544,
  "longitud": -77.4314703,
  "ciudad": "Catac"
}, {
  "id": 2,
  "fecha": "5/27/2019",
  "importe": 9,
  "latitud": 37.1306168,
  "longitud": -7.650062,
  "ciudad": "Tavira"
}, {
  "id": 3,
  "fecha": "11/2/2019",
  "importe": 51,
  "latitud": 34.4198488,
  "longitud": 70.4729434,
  "ciudad": "Jalālābād"
}, {
  "id": 4,
  "fecha": "10/18/2019",
  "importe": 63,
  "latitud": 50.3815209,
  "longitud": 24.0089352,
  "ciudad": "Belz"
}, {
  "id": 5,
  "fecha": "1/10/2020",
  "importe": 81,
  "latitud": 41.4808684,
  "longitud": -8.3624629,
  "ciudad": "Loureiro"
}, {
  "id": 6,
  "fecha": "4/29/2020",
  "importe": 11,
  "latitud": 6.4315805,
  "longitud": 2.8876436,
  "ciudad": "Badagry"
}, {
  "id": 7,
  "fecha": "12/25/2019",
  "importe": 93,
  "latitud": 34.265637,
  "longitud": 107.62613,
  "ciudad": "Zhuge"
}, {
  "id": 8,
  "fecha": "4/24/2020",
  "importe": 19,
  "latitud": 18.0354673,
  "longitud": -76.7195828,
  "ciudad": "Gordon Town"
}, {
  "id": 9,
  "fecha": "2/11/2020",
  "importe": 61,
  "latitud": 44.1316723,
  "longitud": 15.1038874,
  "ciudad": "Ugljan"
}, {
  "id": 10,
  "fecha": "12/27/2019",
  "importe": 57,
  "latitud": 42.8299079,
  "longitud": 59.0072317,
  "ciudad": "Qanliko’l"
}]